<?xml version="1.0" encoding="UTF-8"?>
<svg xmlns="http://www.w3.org/2000/svg" xmlns:xlink="http://www.w3.org/1999/xlink" width="802px" height="597px" viewBox="0 0 401 299" version="1.1">
<g id="surface1">
<path style=" stroke:none;fill-rule:nonzero;fill:rgb(42.352941%,38.823529%,100%);fill-opacity:1;" d="M 227.625 21.035156 C 227.625 26.273438 223.386719 30.519531 218.15625 30.519531 C 212.929688 30.519531 208.691406 26.273438 208.691406 21.035156 C 208.691406 15.796875 212.929688 11.550781 218.15625 11.550781 C 223.386719 11.550781 227.625 15.796875 227.625 21.035156 Z M 227.625 21.035156 "/>
<path style=" stroke:none;fill-rule:nonzero;fill:rgb(100%,100%,100%);fill-opacity:1;" d="M 217.21875 24.652344 C 217.007812 24.652344 216.796875 24.582031 216.628906 24.457031 L 216.617188 24.449219 L 214.394531 22.742188 C 213.960938 22.410156 213.878906 21.789062 214.210938 21.355469 C 214.542969 20.921875 215.164062 20.839844 215.597656 21.171875 L 217.035156 22.277344 L 220.441406 17.828125 C 220.773438 17.394531 221.394531 17.3125 221.828125 17.644531 L 221.808594 17.675781 L 221.828125 17.644531 C 222.261719 17.976562 222.34375 18.597656 222.011719 19.03125 L 218.007812 24.265625 C 217.816406 24.507812 217.527344 24.652344 217.21875 24.652344 Z M 217.21875 24.652344 "/>
<path style=" stroke:none;fill-rule:nonzero;fill:rgb(42.352941%,38.823529%,100%);fill-opacity:1;" d="M 227.625 85.140625 C 227.625 90.378906 223.386719 94.625 218.15625 94.625 C 212.929688 94.625 208.691406 90.378906 208.691406 85.140625 C 208.691406 79.90625 212.929688 75.660156 218.15625 75.660156 C 223.386719 75.660156 227.625 79.90625 227.625 85.140625 Z M 227.625 85.140625 "/>
<path style=" stroke:none;fill-rule:nonzero;fill:rgb(100%,100%,100%);fill-opacity:1;" d="M 217.21875 88.761719 C 217.007812 88.761719 216.796875 88.691406 216.628906 88.5625 L 216.617188 88.554688 L 214.394531 86.851562 C 213.960938 86.519531 213.878906 85.894531 214.210938 85.460938 C 214.542969 85.027344 215.164062 84.945312 215.597656 85.277344 L 217.035156 86.386719 L 220.441406 81.933594 C 220.773438 81.5 221.394531 81.417969 221.828125 81.75 L 221.828125 81.753906 L 221.808594 81.78125 L 221.828125 81.753906 C 222.261719 82.085938 222.34375 82.707031 222.011719 83.140625 L 218.007812 88.371094 C 217.816406 88.617188 217.527344 88.757812 217.21875 88.757812 Z M 217.21875 88.761719 "/>
<path style=" stroke:none;fill-rule:nonzero;fill:rgb(100%,71.764706%,71.764706%);fill-opacity:1;" d="M 241.933594 184.789062 C 241.871094 183.195312 242.515625 181.660156 243.691406 180.589844 C 244.871094 179.519531 246.460938 179.027344 248.035156 179.246094 L 256.707031 162.207031 L 261.605469 170.847656 L 252.621094 185.707031 C 252.066406 188.390625 249.597656 190.238281 246.871094 190.003906 C 244.144531 189.769531 242.023438 187.527344 241.933594 184.789062 Z M 241.933594 184.789062 "/>
<path style=" stroke:none;fill-rule:nonzero;fill:rgb(100%,71.764706%,71.764706%);fill-opacity:1;" d="M 282.355469 292.085938 L 275.550781 292.085938 L 272.3125 265.796875 L 282.355469 265.796875 Z M 282.355469 292.085938 "/>
<path style=" stroke:none;fill-rule:nonzero;fill:rgb(18.431373%,18.039216%,25.490196%);fill-opacity:1;" d="M 284.089844 298.691406 L 262.148438 298.691406 L 262.148438 298.414062 C 262.148438 293.6875 265.972656 289.859375 270.691406 289.859375 L 284.089844 289.859375 Z M 284.089844 298.691406 "/>
<path style=" stroke:none;fill-rule:nonzero;fill:rgb(100%,71.764706%,71.764706%);fill-opacity:1;" d="M 319.242188 292.085938 L 312.4375 292.085938 L 309.199219 265.796875 L 319.242188 265.796875 Z M 319.242188 292.085938 "/>
<path style=" stroke:none;fill-rule:nonzero;fill:rgb(18.431373%,18.039216%,25.490196%);fill-opacity:1;" d="M 320.976562 298.691406 L 299.035156 298.691406 L 299.035156 298.414062 C 299.035156 293.6875 302.859375 289.859375 307.578125 289.859375 L 320.976562 289.859375 Z M 320.976562 298.691406 "/>
<path style=" stroke:none;fill-rule:nonzero;fill:rgb(89.803922%,89.803922%,89.803922%);fill-opacity:1;" d="M 252.382812 169.957031 L 249.414062 174.917969 C 249.414062 174.917969 254.363281 174.917969 255.355469 182.355469 L 259.3125 177.398438 Z M 252.382812 169.957031 "/>
<path style=" stroke:none;fill-rule:nonzero;fill:rgb(18.431373%,18.039216%,25.490196%);fill-opacity:1;" d="M 304.367188 159.542969 C 304.367188 159.542969 312.289062 180.371094 313.773438 193.265625 C 315.257812 206.160156 317.734375 240.375 317.734375 240.375 L 322.683594 284.511719 L 308.820312 286.496094 L 302.882812 241.863281 L 289.515625 197.730469 L 286.542969 241.863281 L 284.066406 282.03125 L 271.195312 282.527344 L 270.207031 240.871094 L 264.761719 187.8125 L 267.730469 162.519531 Z M 304.367188 159.542969 "/>
<path style=" stroke:none;fill-rule:nonzero;fill:rgb(100%,71.764706%,71.764706%);fill-opacity:1;" d="M 294.464844 84.222656 C 294.464844 91.070312 288.921875 96.621094 282.085938 96.621094 C 275.253906 96.621094 269.710938 91.070312 269.710938 84.222656 C 269.710938 77.375 275.253906 71.824219 282.085938 71.824219 C 288.921875 71.824219 294.464844 77.375 294.464844 84.222656 Z M 294.464844 84.222656 "/>
<path style=" stroke:none;fill-rule:nonzero;fill:rgb(89.803922%,89.803922%,89.803922%);fill-opacity:1;" d="M 294.710938 96.316406 L 299.664062 99.789062 L 306.097656 164.75 L 265.996094 165.742188 L 271.445312 120.617188 L 276.394531 107.722656 L 279.96875 102.988281 Z M 294.710938 96.316406 "/>
<path style=" stroke:none;fill-rule:nonzero;fill:rgb(18.431373%,18.039216%,25.490196%);fill-opacity:1;" d="M 295.703125 142.933594 L 297.21875 98.074219 C 297.21875 98.074219 300.15625 98.300781 301.148438 99.789062 C 302.136719 101.277344 318.476562 104.25 318.476562 104.25 L 315.503906 150.371094 C 315.503906 150.371094 327.882812 187.066406 323.425781 189.050781 C 318.972656 191.035156 311.050781 190.539062 311.050781 190.539062 Z M 295.703125 142.933594 "/>
<path style=" stroke:none;fill-rule:nonzero;fill:rgb(18.431373%,18.039216%,25.490196%);fill-opacity:1;" d="M 271.691406 137.230469 L 276.941406 106.996094 L 265.253906 114.914062 L 268.226562 136.734375 L 265.75 151.609375 C 265.75 151.609375 256.34375 192.769531 259.3125 194.257812 C 262.285156 195.746094 265.75 194.257812 265.75 194.257812 L 271.691406 152.601562 Z M 271.691406 137.230469 "/>
<path style=" stroke:none;fill-rule:nonzero;fill:rgb(18.431373%,18.039216%,25.490196%);fill-opacity:1;" d="M 268.722656 113.921875 L 265.253906 114.914062 L 263.769531 134.75 L 261.292969 152.105469 L 249.414062 173.429688 C 249.414062 173.429688 255.355469 169.460938 257.828125 180.867188 L 270.914062 158.046875 Z M 268.722656 113.921875 "/>
<path style=" stroke:none;fill-rule:nonzero;fill:rgb(18.431373%,18.039216%,25.490196%);fill-opacity:1;" d="M 292.449219 72.410156 L 294.78125 71.476562 C 294.78125 71.476562 289.902344 66.09375 283.113281 66.5625 L 285.023438 64.457031 C 285.023438 64.457031 280.355469 62.582031 276.113281 67.496094 C 273.882812 70.078125 271.300781 73.117188 269.691406 76.535156 L 267.191406 76.535156 L 268.234375 78.835938 L 264.582031 81.136719 L 268.332031 80.726562 C 268.109375 81.984375 268.074219 83.269531 268.230469 84.542969 C 268.390625 85.8125 269.039062 86.96875 270.035156 87.773438 C 270.035156 87.773438 272.929688 81.769531 272.929688 80.835938 L 272.929688 83.175781 C 272.929688 83.175781 275.261719 81.066406 275.261719 79.664062 L 276.535156 81.300781 L 277.171875 78.726562 L 285.023438 81.300781 L 283.75 79.195312 L 288.628906 79.898438 L 286.71875 77.324219 L 294.277344 87.953125 C 294.277344 87.953125 298.601562 75.921875 292.449219 72.410156 Z M 292.449219 72.410156 "/>
<path style=" stroke:none;fill-rule:nonzero;fill:rgb(100%,71.764706%,71.764706%);fill-opacity:1;" d="M 295.648438 180.722656 C 295.898438 179.148438 296.828125 177.765625 298.191406 176.945312 C 299.554688 176.125 301.210938 175.953125 302.710938 176.472656 L 314.519531 161.441406 L 317.652344 170.875 L 305.957031 183.699219 C 304.894531 186.226562 302.113281 187.558594 299.484375 186.796875 C 296.851562 186.039062 295.207031 183.425781 295.648438 180.722656 Z M 295.648438 180.722656 "/>
<path style=" stroke:none;fill-rule:nonzero;fill:rgb(89.803922%,89.803922%,89.803922%);fill-opacity:1;" d="M 315.753906 175.414062 L 311.296875 180.867188 L 305.355469 170.453125 L 307.832031 165.992188 Z M 315.753906 175.414062 "/>
<path style=" stroke:none;fill-rule:nonzero;fill:rgb(18.431373%,18.039216%,25.490196%);fill-opacity:1;" d="M 314.761719 105.988281 L 318.722656 104.003906 C 318.722656 104.003906 321.695312 107.96875 322.1875 111.441406 C 322.683594 114.914062 325.160156 119.375 325.160156 121.855469 C 325.160156 124.335938 332.089844 147.644531 332.089844 147.644531 L 316.246094 179.875 C 316.246094 179.875 312.78125 167.976562 305.355469 166.984375 L 317.734375 149.625 L 310.800781 137.230469 Z M 314.761719 105.988281 "/>
<path style=" stroke:none;fill-rule:nonzero;fill:rgb(79.607843%,79.607843%,79.607843%);fill-opacity:1;" d="M 400.460938 298.996094 L 209.960938 298.996094 C 209.683594 298.996094 209.460938 298.773438 209.460938 298.496094 C 209.460938 298.21875 209.683594 297.996094 209.960938 297.996094 L 400.460938 297.996094 C 400.738281 297.996094 400.960938 298.21875 400.960938 298.496094 C 400.960938 298.773438 400.738281 298.996094 400.460938 298.996094 Z M 400.460938 298.996094 "/>
<path style=" stroke:none;fill-rule:nonzero;fill:rgb(100%,100%,100%);fill-opacity:1;" d="M 182.5 106.175781 L 0 106.175781 L 0 64.105469 L 182.5 64.105469 Z M 182.5 106.175781 "/>
<path style=" stroke:none;fill-rule:nonzero;fill:rgb(42.352941%,38.823529%,100%);fill-opacity:1;" d="M 26.339844 78.019531 C 25.359375 78.019531 24.5625 78.816406 24.5625 79.800781 C 24.5625 80.78125 25.359375 81.578125 26.339844 81.578125 L 156.167969 81.578125 C 157.148438 81.578125 157.945312 80.78125 157.945312 79.800781 C 157.945312 78.816406 157.148438 78.019531 156.167969 78.019531 Z M 26.339844 78.019531 "/>
<path style=" stroke:none;fill-rule:nonzero;fill:rgb(42.352941%,38.823529%,100%);fill-opacity:1;" d="M 26.339844 88.703125 C 25.355469 88.703125 24.558594 89.5 24.558594 90.480469 C 24.554688 91.464844 25.347656 92.265625 26.332031 92.265625 L 108.410156 92.265625 C 109.046875 92.269531 109.636719 91.929688 109.953125 91.378906 C 110.273438 90.824219 110.273438 90.144531 109.953125 89.59375 C 109.636719 89.042969 109.046875 88.703125 108.410156 88.703125 Z M 26.339844 88.703125 "/>
<path style=" stroke:none;fill-rule:nonzero;fill:rgb(89.803922%,89.803922%,89.803922%);fill-opacity:1;" d="M 182.5 106.175781 L 0 106.175781 L 0 64.105469 L 182.5 64.105469 Z M 3 103.171875 L 179.5 103.171875 L 179.5 67.113281 L 3 67.113281 Z M 3 103.171875 "/>
<path style=" stroke:none;fill-rule:nonzero;fill:rgb(100%,100%,100%);fill-opacity:1;" d="M 182.5 170.285156 L 0 170.285156 L 0 128.214844 L 182.5 128.214844 Z M 182.5 170.285156 "/>
<path style=" stroke:none;fill-rule:nonzero;fill:rgb(90.196078%,90.196078%,90.196078%);fill-opacity:1;" d="M 26.339844 142.125 C 25.359375 142.125 24.5625 142.921875 24.5625 143.90625 C 24.5625 144.886719 25.359375 145.6875 26.339844 145.6875 L 156.167969 145.6875 C 157.148438 145.6875 157.945312 144.886719 157.945312 143.90625 C 157.945312 142.921875 157.148438 142.125 156.167969 142.125 Z M 26.339844 142.125 "/>
<path style=" stroke:none;fill-rule:nonzero;fill:rgb(90.196078%,90.196078%,90.196078%);fill-opacity:1;" d="M 26.339844 152.8125 C 25.355469 152.808594 24.558594 153.605469 24.558594 154.589844 C 24.554688 155.574219 25.347656 156.371094 26.332031 156.375 L 108.410156 156.375 C 109.046875 156.375 109.636719 156.035156 109.953125 155.484375 C 110.273438 154.933594 110.273438 154.253906 109.953125 153.703125 C 109.636719 153.148438 109.046875 152.8125 108.410156 152.8125 Z M 26.339844 152.8125 "/>
<path style=" stroke:none;fill-rule:nonzero;fill:rgb(89.803922%,89.803922%,89.803922%);fill-opacity:1;" d="M 182.5 170.285156 L 0 170.285156 L 0 128.214844 L 182.5 128.214844 Z M 3 167.28125 L 179.5 167.28125 L 179.5 131.21875 L 3 131.21875 Z M 3 167.28125 "/>
<path style=" stroke:none;fill-rule:nonzero;fill:rgb(100%,100%,100%);fill-opacity:1;" d="M 184 42.070312 L 1.5 42.070312 L 1.5 0 L 184 0 Z M 184 42.070312 "/>
<path style=" stroke:none;fill-rule:nonzero;fill:rgb(42.352941%,38.823529%,100%);fill-opacity:1;" d="M 27.839844 13.910156 C 26.859375 13.910156 26.0625 14.710938 26.0625 15.691406 C 26.0625 16.675781 26.859375 17.472656 27.839844 17.472656 L 157.667969 17.472656 C 158.648438 17.472656 159.445312 16.675781 159.445312 15.691406 C 159.445312 14.710938 158.648438 13.910156 157.667969 13.910156 Z M 27.839844 13.910156 "/>
<path style=" stroke:none;fill-rule:nonzero;fill:rgb(42.352941%,38.823529%,100%);fill-opacity:1;" d="M 27.839844 24.597656 C 26.855469 24.59375 26.058594 25.390625 26.058594 26.375 C 26.054688 27.359375 26.847656 28.15625 27.832031 28.160156 L 109.910156 28.160156 C 110.546875 28.160156 111.136719 27.820312 111.453125 27.269531 C 111.773438 26.71875 111.773438 26.039062 111.453125 25.488281 C 111.136719 24.9375 110.546875 24.597656 109.910156 24.597656 Z M 27.839844 24.597656 "/>
<path style=" stroke:none;fill-rule:nonzero;fill:rgb(89.803922%,89.803922%,89.803922%);fill-opacity:1;" d="M 184 42.070312 L 1.5 42.070312 L 1.5 0 L 184 0 Z M 4.5 39.066406 L 181 39.066406 L 181 3.003906 L 4.5 3.003906 Z M 4.5 39.066406 "/>
<path style=" stroke:none;fill-rule:nonzero;fill:rgb(94.509804%,94.509804%,94.509804%);fill-opacity:1;" d="M 369.625 299.230469 L 369.625 263 C 369.625 263 383.71875 288.683594 369.625 299.230469 Z M 369.625 299.230469 "/>
<path style=" stroke:none;fill-rule:nonzero;fill:rgb(94.509804%,94.509804%,94.509804%);fill-opacity:1;" d="M 370.496094 299.222656 L 343.851562 274.722656 C 343.851562 274.722656 372.273438 281.691406 370.496094 299.222656 Z M 370.496094 299.222656 "/>
<path style=" stroke:none;fill-rule:nonzero;fill:rgb(42.352941%,38.823529%,100%);fill-opacity:1;" d="M 251.625 174.214844 C 251.625 179.453125 247.386719 183.695312 242.15625 183.695312 C 236.929688 183.695312 232.691406 179.453125 232.691406 174.214844 C 232.691406 168.976562 236.929688 164.730469 242.15625 164.730469 C 247.386719 164.730469 251.625 168.976562 251.625 174.214844 Z M 251.625 174.214844 "/>
<path style=" stroke:none;fill-rule:nonzero;fill:rgb(100%,100%,100%);fill-opacity:1;" d="M 241.21875 177.832031 C 241.007812 177.832031 240.796875 177.761719 240.628906 177.636719 L 240.617188 177.628906 L 238.394531 175.921875 C 237.957031 175.589844 237.875 174.96875 238.210938 174.53125 C 238.542969 174.097656 239.164062 174.015625 239.597656 174.351562 L 241.035156 175.457031 L 244.441406 171.007812 C 244.773438 170.574219 245.394531 170.492188 245.828125 170.824219 L 245.808594 170.851562 L 245.828125 170.824219 C 246.261719 171.15625 246.34375 171.777344 246.011719 172.210938 L 242.007812 177.445312 C 241.816406 177.6875 241.527344 177.832031 241.21875 177.832031 Z M 241.21875 177.832031 "/>
</g>
</svg>
